4 Modelo Prophet para Series Temporales | Modelo Prophet para Series Temporales
…
## tibble [244 × 3] (S3: tbl_df/tbl/data.frame)
##  $ ds : Date[1:244], format: "2000-01-01" "2000-02-01" ...
##  $ y  : num [1:244] 104 146 125 116 129 ...
##  $ Mes: Ord.factor w/ 12 levels "ene"<"feb"<"mar"<..: 1 2 3 1 5 6 7 1 9 10 ...

Se debe eliminar la columna mes

Code

# Eliminar la columna 'Mes' y verificar formato
remesas_df <- remesas_df %>% select(ds, y)
remesas_df

## # A tibble: 244 × 2
##    ds             y
##    <date>     <dbl>
##  1 2000-01-01  104.
##  2 2000-02-01  146.
##  3 2000-03-01  125.
##  4 2000-01-01  116.
##  5 2000-05-01  129.
##  6 2000-06-01  134.
##  7 2000-07-01  118.
##  8 2000-01-01  132.
##  9 2000-09-01  139.
## 10 2000-10-01  128.
## # ℹ 234 more rows
…
