…
``` r
# Eliminar la columna 'Mes' y verificar formato
remesas_df <- remesas_df %>% select(ds, y)
remesas_df
```

```
## # A tibble: 244 × 2
##    ds             y
##    <date>     <dbl>
##  1 2000-01-01  104.
##  2 2000-02-01  146.
##  3 2000-03-01  125.
##  4 2000-01-01  116.
##  5 2000-05-01  129.
##  6 2000-06-01  134.
##  7 2000-07-01  118.
##  8 2000-01-01  132.
##  9 2000-09-01  139.
## 10 2000-10-01  128.
## # ℹ 234 more rows
```
…
